<?xml version="1.0" encoding="UTF-8" standalone="no"?>
<svg
   width="64"
   height="64"
   viewBox="0 0 8.4666667 8.4666667"
   version="1.1"
   id="svg8">
  <defs
     id="defs2">
    <clipPath
       clipPathUnits="userSpaceOnUse"
       id="steam-clip-path">
      <rect
         clip-path="none"
         id="rect1373"
         width="1.0583333"
         height="4.2333331"
         x="3.7041667"
         y="288.53333" />
      <rect
         y="289.85623"
         x="5.2916665"
         height="2.9104159"
         width="1.0583333"
         id="rect1438" />
      <rect
         id="rect1369"
         width="1.058333"
         height="2.9104159"
         x="2.1166666"
         y="289.85623" />
      <use
         x="0"
         y="0"
         xlink:href="#g2067"
         id="use2073"
         width="100%"
         height="100%" />
    </clipPath>
  </defs>
  <metadata
     id="metadata5">
  </metadata>
  <g
     id="layer1"
     transform="translate(0,-288.53333)">
    <g
       id="g839"
       style="fill:#888888;fill-opacity:1">
      <rect
         ry="0.26458332"
         y="293.29584"
         x="8.9009603e-07"
         height="0.52916664"
         width="8.4666662"
         id="rect821"
         style="opacity:1;fill:#888888;fill-opacity:1;fill-rule:nonzero;stroke:none;stroke-width:0.5291667;stroke-linecap:butt;stroke-linejoin:miter;stroke-miterlimit:4;stroke-dasharray:none;stroke-opacity:1;paint-order:normal" />
      <g
         id="g833"
         style="fill:#888888;fill-opacity:1">
        <rect
           style="opacity:1;fill:#888888;fill-opacity:1;fill-rule:nonzero;stroke:none;stroke-width:0.44273335;stroke-linecap:butt;stroke-linejoin:miter;stroke-miterlimit:4;stroke-dasharray:none;stroke-opacity:1;paint-order:normal"
           id="rect817"
           width="6.3499999"
           height="3.704179"
           x="1.0583333"
           y="293.29584"
           ry="0.52916664" />
        <rect
           style="opacity:1;fill:#888888;fill-opacity:1;fill-rule:nonzero;stroke:none;stroke-width:0.52916664;stroke-linecap:butt;stroke-linejoin:miter;stroke-miterlimit:4;stroke-dasharray:none;stroke-opacity:1;paint-order:normal"
           id="rect823"
           width="6.3499999"
           height="0.79374999"
           x="1.0583333"
           y="292.76666" />
      </g>
    </g>
    <g
       clip-path="url(#steam-clip-path)"
       id="steam-group">
      <path
         id="right-steam"
         d="m 5.8208334,288.53333 c -0.1762293,0.35246 -0.3526195,0.70524 -0.3526463,1.05828 -2.68e-5,0.35304 0.1762023,0.7055 0.3526192,1.05833 0.1764168,0.35284 0.3527524,0.70551 0.3528311,1.05823 7.87e-5,0.35273 -0.1762569,0.7054 -0.3527243,1.05833 -0.1764675,0.35294 -0.3526966,0.7054 -0.352724,1.05844 -2.75e-5,0.35305 0.176203,0.70551 0.3526185,1.05834 0.1764155,0.35283 0.3527511,0.7055 0.3528305,1.05822 7.93e-5,0.35273 -0.1762549,0.7054 -0.3527244,1.05834 -0.1764694,0.35294 -0.3526998,0.7054 -0.352726,1.05844 -2.61e-5,0.35304 0.1762044,0.7055 0.3526192,1.05833 0.1764149,0.35283 0.3527491,0.7055 0.3528292,1.05823 8e-5,0.35273 -0.1762556,0.7054 -0.3527237,1.05833 -0.1764681,0.35294 -0.3526985,0.7054 -0.3527253,1.05844 -2.68e-5,0.35304 0.1762023,0.7055 0.3526192,1.05833 0.1764168,0.35284 0.3527524,0.70551 0.5291937,1.05839"
         style="fill:none;stroke:#000000;stroke-width:0.26458332px;stroke-linecap:butt;stroke-linejoin:miter;stroke-opacity:1" />
      <path
         id="middle-steam"
         d="m 4.2333333,288.53333 c -0.1762293,0.35246 -0.3526195,0.70524 -0.3526463,1.05828 -2.68e-5,0.35304 0.1762023,0.7055 0.3526192,1.05833 0.1764168,0.35284 0.3527524,0.70551 0.3528311,1.05823 7.87e-5,0.35273 -0.1762569,0.7054 -0.3527243,1.05833 -0.1764675,0.35294 -0.3526966,0.7054 -0.352724,1.05844 -2.75e-5,0.35305 0.176203,0.70551 0.3526185,1.05834 0.1764155,0.35283 0.3527511,0.7055 0.3528305,1.05822 7.93e-5,0.35273 -0.1762549,0.7054 -0.3527244,1.05834 -0.1764694,0.35294 -0.3526998,0.7054 -0.352726,1.05844 -2.61e-5,0.35304 0.1762044,0.7055 0.3526192,1.05833 0.1764149,0.35283 0.3527491,0.7055 0.3528292,1.05823 8e-5,0.35273 -0.1762556,0.7054 -0.3527237,1.05833 -0.1764681,0.35294 -0.3526985,0.7054 -0.3527253,1.05844 -2.68e-5,0.35304 0.1762023,0.7055 0.3526192,1.05833 0.1764168,0.35284 0.3527524,0.70551 0.5291937,1.05839"
         style="fill:none;stroke:#000000;stroke-width:0.26458332px;stroke-linecap:butt;stroke-linejoin:miter;stroke-opacity:1" />
      <path
         id="left-steam"
         d="m 2.6458333,288.53333 c -0.1762293,0.35246 -0.3526195,0.70524 -0.3526463,1.05828 -2.68e-5,0.35304 0.1762023,0.7055 0.3526192,1.05833 0.1764168,0.35284 0.3527524,0.70551 0.3528311,1.05823 7.87e-5,0.35273 -0.1762569,0.7054 -0.3527243,1.05833 -0.1764675,0.35294 -0.3526966,0.7054 -0.352724,1.05844 -2.75e-5,0.35305 0.176203,0.70551 0.3526185,1.05834 0.1764155,0.35283 0.3527511,0.7055 0.3528305,1.05822 7.93e-5,0.35273 -0.1762549,0.7054 -0.3527244,1.05834 -0.1764694,0.35294 -0.3526998,0.7054 -0.352726,1.05844 -2.61e-5,0.35304 0.1762044,0.7055 0.3526192,1.05833 0.1764149,0.35283 0.3527491,0.7055 0.3528292,1.05823 8e-5,0.35273 -0.1762556,0.7054 -0.3527237,1.05833 -0.1764681,0.35294 -0.3526985,0.7054 -0.3527253,1.05844 -2.68e-5,0.35304 0.1762023,0.7055 0.3526192,1.05833 0.1764168,0.35284 0.3527524,0.70551 0.5291937,1.05839"
         style="fill:none;stroke:#000000;stroke-width:0.26458332px;stroke-linecap:butt;stroke-linejoin:miter;stroke-opacity:1" />
    </g>
  </g>
</svg>
