<?xml version="1.0" encoding="UTF-8" standalone="no"?>
<svg xmlns="http://www.w3.org/2000/svg" viewBox="0 0 8.4666667 8.4666667" height="100%" width="100%">
     <g transform="translate(0,-288.53333)" id="layer1">
          <path id="path819" d="m 1.0583333,296.73541 c 0,0 0,0.26459 0.2645833,0.26459 0.2645833,0 0.2645834,-0.26459 0.2645834,-0.26459 v -8.20208 c 0,0 -0.2645833,0 -0.5291667,0.52917 -0.2645833,0.52916 -0.2645833,3.43958 -0.2645833,3.43958 0,0 0.2645833,0 0.2645833,0.26458 0,0.26459 0,3.96875 0,3.96875 z" style="fill-opacity:1;stroke:none;stroke-width:0.26458332px;stroke-linecap:butt;stroke-linejoin:miter;stroke-opacity:1" />
          <path id="path821" d="m 6.8791666,296.73541 c 0,0 -10e-8,0.26459 0.2645833,0.26459 0.2645838,0 0.2645828,-0.26459 0.2645828,-0.26459 l 1e-6,-5.02708 c 0,-0.52917 0.529166,-0.26458 0.661458,-0.79375 0.132292,-0.52917 0.0303,-1.39216 -0.132292,-1.71979 -0.264586,-0.52917 -0.529166,-0.66146 -0.7937498,-0.66146 -0.2645834,0 -0.529164,0.13229 -0.79375,0.66146 -0.2524343,0.55456 -0.2645833,1.19062 -0.1322916,1.71979 0.1322916,0.52917 0.6614583,0.26458 0.6614583,0.79375 z" style="fill-opacity:1;stroke:none;stroke-width:0.26458332px;stroke-linecap:butt;stroke-linejoin:miter;stroke-opacity:1" />
          <path id="path823" d="m 3.81,296.74156 c 0,0 2e-7,0.26459 0.2513543,0.26459 0.251354,0 0.251354,-0.26459 0.251354,-0.26459 v -5.10645 c 0,-0.21167 0.2645834,-0.3175 0.2645834,-0.52917 l -0.026458,-2.48708 c -1e-7,-0.10583 -0.105833,-0.10583 -0.1058329,0 l -0.026458,1.85208 c 1e-7,0.0529 -0.1322916,0.0529 -0.1322917,0 l -0.026458,-1.85208 c -1e-7,-0.10583 -0.1058337,-0.10582 -0.1058334,0 l -0.026458,1.85207 c 3e-7,0.0529 -0.1322912,0.0529 -0.1322916,0 l -0.026459,-1.85207 c -4e-7,-0.10582 -0.1058335,-0.10583 -0.1058333,0 l -0.026458,1.85208 c 2e-7,0.0529 -0.1322916,0.0529 -0.1322917,0 l -0.026458,-1.85208 c -1e-7,-0.10583 -0.1058348,-0.10583 -0.1058347,0 l -0.026457,2.48708 c 0,0.21167 0.2645833,0.3175 0.2645832,0.52917 z" style="fill-opacity:1;stroke:none;stroke-width:0.26458332px;stroke-linecap:butt;stroke-linejoin:miter;stroke-opacity:1" />
     </g>
</svg>
