<?xml version="1.0" encoding="UTF-8" standalone="no"?>
<svg
   xmlns:osb="http://www.openswatchbook.org/uri/2009/osb"
   xmlns:dc="http://purl.org/dc/elements/1.1/"
   xmlns:cc="http://creativecommons.org/ns#"
   xmlns:rdf="http://www.w3.org/1999/02/22-rdf-syntax-ns#"
   xmlns:svg="http://www.w3.org/2000/svg"
   xmlns="http://www.w3.org/2000/svg"
   id="SVGRoot"
   version="1.1"
   viewBox="0 0 32 32"
   height="32px"
   width="32px">
  <defs
     id="defs4695">
    <linearGradient
       osb:paint="solid"
       id="linearGradient5266">
      <stop
         id="stop5264"
         offset="0"
         style="stop-color:#666666;stop-opacity:1;" />
    </linearGradient>
  </defs>
  <metadata
     id="metadata4698">
    <rdf:RDF>
      <cc:Work
         rdf:about="">
        <dc:format>image/svg+xml</dc:format>
        <dc:type
           rdf:resource="http://purl.org/dc/dcmitype/StillImage" />
        <dc:title></dc:title>
      </cc:Work>
    </rdf:RDF>
  </metadata>
  <g
     id="layer1">
    <g
       style="fill-opacity:1;fill:#c26666;stroke-width:1;stroke-miterlimit:4;stroke-dasharray:none;stroke:none;stroke-opacity:1;stroke-linejoin:round"
       id="g5464">
      <path
         id="path5270-2"
         d="M 16 1 A 7.5 7.5 0 0 0 10.601562 3.3066406 A 7.5 7.5 0 0 0 8.5 3 A 7.5 7.5 0 0 0 1 10.5 A 7.5 7.5 0 0 0 6.5 17.71875 L 6.5 31 L 25.5 31 L 25.5 17.728516 A 7.5 7.5 0 0 0 31 10.5 A 7.5 7.5 0 0 0 23.5 3 A 7.5 7.5 0 0 0 21.404297 3.3027344 A 7.5 7.5 0 0 0 16 1 z "
         style="fill:#f2f2f2;fill-opacity:1;stroke:#303030;stroke-width:2;stroke-linejoin:miter;stroke-miterlimit:4;stroke-dasharray:none;stroke-opacity:1" />
      <rect
         y="26"
         x="7.5"
         height="4"
         width="17"
         id="rect5529"
         style="opacity:1;fill:#888888;fill-opacity:1;stroke:none;stroke-width:0.97467941;stroke-linecap:butt;stroke-linejoin:miter;stroke-miterlimit:4;stroke-dasharray:none;stroke-opacity:1;paint-order:normal" />
    </g>
  </g>
</svg>
